module randi_firmansyah

go 1.17

require (
	github.com/go-chi/chi v1.5.4
	github.com/go-redis/redis/v8 v8.11.4
	github.com/jinzhu/gorm v1.9.16
	gorm.io/driver/mysql v1.3.2
	gorm.io/gorm v1.23.2
)

require github.com/golang-jwt/jwt v3.2.2+incompatible // indirect

require (
	github.com/cespare/xxhash/v2 v2.1.2 // indirect
	github.com/dgryski/go-rendezvous v0.0.0-20200823014737-9f7001d12a5f // indirect
	github.com/go-sql-driver/mysql v1.6.0 // indirect
	github.com/jinzhu/inflection v1.0.0 // indirect
	github.com/jinzhu/now v1.1.4 // indirect
	golang.org/x/crypto v0.0.0-20220315160706-3147a52a75dd
)
